Extract Metadata from 'NetCDF' Files as Data Frames • ncdump
…
  print(names(con)[i])
  print(con[[i]])
}
#> [1] "dimension"
#> # A tibble: 4 × 7
#>            name   len unlim group_index group_id    id create_dimvar
#>           <chr> <int> <lgl>       <int>    <int> <int>         <lgl>
#> 1           lat  2160 FALSE           1    65536     0          TRUE
#> 2           lon  4320 FALSE           1    65536     1          TRUE
#> 3           rgb     3 FALSE           1    65536     2         FALSE
#> 4 eightbitcolor   256 FALSE           1    65536     3         FALSE
#> [1] "unlimdims"
#> NULL
#> [1] "dimvals"
#> # A tibble: 6,739 × 2
#>       id     vals
#>    <int>    <dbl>
#> 1      0 89.95834
#> 2      0 89.87500
#> 3      0 89.79167
#> 4      0 89.70834
#> 5      0 89.62500
#> 6      0 89.54167
#> 7      0 89.45834
#> 8      0 89.37500
#> 9      0 89.29167
#> 10     0 89.20834
#> # ... with 6,729 more rows
…
